{
	"id": "bc8e481a-4d4c-3063-62ff-9969fde82075",
	"name": "authentication",
	"description": "",
	"order": [
		"521a008f-188f-1f6d-ad30-eea87a5addc3",
		"f4c00144-b7ab-cd83-579c-d4aaef9abbe5",
		"442098b2-d5f3-74cf-77c2-8db609b87724",
		"5f8371e7-e8a1-4076-a02b-4eb8c336a484",
		"140372f9-6834-08fe-4383-82fe64623cbe",
		"6faabd37-2a23-5457-9aa3-109283485bc9",
		"d12c83f2-3c08-6203-0c49-48d402ae06df",
		"347cb848-c803-d021-fdbc-68b523019110",
		"cfeb1ee4-b148-04b6-92a4-3bcdc0373a58"
	],
	"folders": [],
	"folders_order": [],
	"timestamp": 1583121568448,
	"owner": "1710681",
	"public": false,
	"requests": [
		{
			"id": "140372f9-6834-08fe-4383-82fe64623cbe",
			"headers": "Content-Type: application/x-www-form-urlencoded\n",
			"headerData": [
				{
					"key": "Content-Type",
					"value": "application/x-www-form-urlencoded",
					"description": "",
					"enabled": true
				}
			],
			"url": "http://127.0.0.1:4040/api/user/delete",
			"queryParams": [],
			"pathVariables": {},
			"pathVariableData": [],
			"preRequestScript": null,
			"method": "DELETE",
			"collectionId": "bc8e481a-4d4c-3063-62ff-9969fde82075",
			"data": [
				{
					"key": "email",
					"value": "rooder@gmail.co",
					"description": "",
					"type": "text",
					"enabled": true
				}
			],
			"dataMode": "urlencoded",
			"name": "http://127.0.0.1:4040/api/user/delete",
			"description": "",
			"descriptionFormat": "html",
			"time": 1583395005317,
			"version": 2,
			"responses": [],
			"tests": null,
			"currentHelper": "normal",
			"helperAttributes": {}
		},
		{
			"id": "347cb848-c803-d021-fdbc-68b523019110",
			"headers": "",
			"headerData": [],
			"url": "http://127.0.0.1:4040/api/user/changepassword",
			"queryParams": [],
			"pathVariables": {},
			"pathVariableData": [],
			"preRequestScript": null,
			"method": "PUT",
			"collectionId": "bc8e481a-4d4c-3063-62ff-9969fde82075",
			"data": [
				{
					"key": "email",
					"value": "samolito92@gmail.com",
					"description": "",
					"type": "text",
					"enabled": true
				},
				{
					"key": "password",
					"value": "mypass1234",
					"description": "",
					"type": "text",
					"enabled": true
				},
				{
					"key": "new_password",
					"value": "wordpass11",
					"description": "",
					"type": "text",
					"enabled": true
				},
				{
					"key": "confirmPassword",
					"value": "wordpass11",
					"description": "",
					"type": "text",
					"enabled": true
				}
			],
			"dataMode": "params",
			"name": "http://127.0.0.1:4040/api/user/changepassword",
			"description": "",
			"descriptionFormat": "html",
			"time": 1583396280977,
			"version": 2,
			"responses": [],
			"tests": null,
			"currentHelper": "normal",
			"helperAttributes": {}
		},
		{
			"id": "442098b2-d5f3-74cf-77c2-8db609b87724",
			"headers": "Content-Type: application/x-www-form-urlencoded\n",
			"headerData": [
				{
					"key": "Content-Type",
					"value": "application/x-www-form-urlencoded",
					"description": "",
					"enabled": true
				}
			],
			"url": "http://127.0.0.1:4040/api/verifyemail",
			"queryParams": [],
			"pathVariables": {},
			"pathVariableData": [],
			"preRequestScript": null,
			"method": "POST",
			"collectionId": "bc8e481a-4d4c-3063-62ff-9969fde82075",
			"data": [
				{
					"key": "email",
					"value": "cephas@gmail.com",
					"description": "",
					"type": "text",
					"enabled": true
				}
			],
			"dataMode": "urlencoded",
			"name": "http://127.0.0.1:4040/api/verifyemail",
			"description": "",
			"descriptionFormat": "html",
			"time": 1584005164119,
			"version": 2,
			"responses": [],
			"tests": null,
			"currentHelper": "normal",
			"helperAttributes": {}
		},
		{
			"id": "521a008f-188f-1f6d-ad30-eea87a5addc3",
			"headers": "Content-Type: application/x-www-form-urlencoded\nAuthorization: Bearer eyJhbGciOiJIUzI1NiIsInR5cCI6IkpXVCJ9.eyJ1c2VyIjp7ImlkIjoiNWU2ZWUxM2IzYWQ4ODAxYWQ1ZTU5OTNjIiwiZW1haWwiOiJsZXVtYXNuYWplQGdtYWlsLmNvbSJ9LCJpYXQiOjE1ODQ0MTk3NTF9.EymFT_nlSv7eg_v_oLc_aQ8UuzJU1aDsBWqN4xubw4g\n",
			"headerData": [
				{
					"key": "Content-Type",
					"value": "application/x-www-form-urlencoded",
					"description": "",
					"enabled": true
				},
				{
					"key": "Authorization",
					"value": "Bearer eyJhbGciOiJIUzI1NiIsInR5cCI6IkpXVCJ9.eyJ1c2VyIjp7ImlkIjoiNWU2ZWUxM2IzYWQ4ODAxYWQ1ZTU5OTNjIiwiZW1haWwiOiJsZXVtYXNuYWplQGdtYWlsLmNvbSJ9LCJpYXQiOjE1ODQ0MTk3NTF9.EymFT_nlSv7eg_v_oLc_aQ8UuzJU1aDsBWqN4xubw4g",
					"description": "",
					"enabled": true
				}
			],
			"url": "http://localhost:8040/api/login",
			"queryParams": [],
			"preRequestScript": null,
			"pathVariables": {},
			"pathVariableData": [],
			"method": "POST",
			"data": [
				{
					"key": "email",
					"value": "samuel90@gmail.com",
					"description": "",
					"type": "text",
					"enabled": true
				},
				{
					"key": "password",
					"value": "mypass1234",
					"description": "",
					"type": "text",
					"enabled": true
				}
			],
			"dataMode": "urlencoded",
			"version": 2,
			"tests": null,
			"currentHelper": "normal",
			"helperAttributes": {},
			"time": 1585300387386,
			"name": "http://127.0.0.1:4040/api/login",
			"description": "",
			"collectionId": "bc8e481a-4d4c-3063-62ff-9969fde82075",
			"responses": []
		},
		{
			"id": "5f8371e7-e8a1-4076-a02b-4eb8c336a484",
			"headers": "",
			"headerData": [],
			"url": "http://127.0.0.1:4040/api/allusers",
			"queryParams": [],
			"pathVariables": {},
			"pathVariableData": [],
			"preRequestScript": null,
			"method": "GET",
			"collectionId": "bc8e481a-4d4c-3063-62ff-9969fde82075",
			"data": null,
			"dataMode": "params",
			"name": "http://127.0.0.1:4040/api/allusers",
			"description": "",
			"descriptionFormat": "html",
			"time": 1583305453045,
			"version": 2,
			"responses": [],
			"tests": null,
			"currentHelper": "normal",
			"helperAttributes": {}
		},
		{
			"id": "6faabd37-2a23-5457-9aa3-109283485bc9",
			"headers": "//Content-Type: application/x-www-form-urlencoded\n",
			"headerData": [
				{
					"key": "Content-Type",
					"value": "application/x-www-form-urlencoded",
					"description": "",
					"enabled": false
				}
			],
			"url": "http://127.0.0.1:4040/api/logout",
			"queryParams": [],
			"preRequestScript": null,
			"pathVariables": {},
			"pathVariableData": [],
			"method": "GET",
			"data": [
				{
					"key": "firstName",
					"value": "Jean Samuel",
					"description": "",
					"type": "text",
					"enabled": true
				},
				{
					"key": "lastName",
					"value": "PIERRE",
					"description": "",
					"type": "text",
					"enabled": true
				},
				{
					"key": "email",
					"value": "sam@gmail.com",
					"description": "",
					"type": "text",
					"enabled": true
				}
			],
			"dataMode": "urlencoded",
			"version": 2,
			"tests": null,
			"currentHelper": "normal",
			"helperAttributes": {},
			"time": 1584422103696,
			"name": "http://127.0.0.1:4040/api/logout",
			"description": "",
			"collectionId": "bc8e481a-4d4c-3063-62ff-9969fde82075",
			"responses": []
		},
		{
			"id": "cfeb1ee4-b148-04b6-92a4-3bcdc0373a58",
			"headers": "Content-Type: application/x-www-form-urlencoded\n",
			"headerData": [
				{
					"key": "Content-Type",
					"value": "application/x-www-form-urlencoded",
					"description": "",
					"enabled": true
				}
			],
			"url": "http://127.0.0.1:4040/api/recoverpassword",
			"queryParams": [],
			"pathVariables": {},
			"pathVariableData": [],
			"preRequestScript": null,
			"method": "POST",
			"collectionId": "bc8e481a-4d4c-3063-62ff-9969fde82075",
			"data": [
				{
					"key": "code",
					"value": "samolito",
					"description": "",
					"type": "text",
					"enabled": true
				},
				{
					"key": "new_password",
					"value": "mypass1234",
					"description": "",
					"type": "text",
					"enabled": true
				},
				{
					"key": "confirmPassword",
					"value": "mypass1234",
					"description": "",
					"type": "text",
					"enabled": true
				}
			],
			"dataMode": "urlencoded",
			"name": "http://127.0.0.1:4040/api/recoverpassword",
			"description": "Recover forgetten password",
			"descriptionFormat": "html",
			"time": 1584067441549,
			"version": 2,
			"responses": [],
			"tests": null,
			"currentHelper": "normal",
			"helperAttributes": {}
		},
		{
			"id": "d12c83f2-3c08-6203-0c49-48d402ae06df",
			"headers": "Content-Type: application/x-www-form-urlencoded\nemail: leumasnaje@gmail.com\n",
			"headerData": [
				{
					"key": "Content-Type",
					"value": "application/x-www-form-urlencoded",
					"description": "",
					"enabled": true
				},
				{
					"key": "email",
					"value": "leumasnaje@gmail.com",
					"description": "",
					"enabled": true
				}
			],
			"url": "http://127.0.0.1:4040/api/getuser/leumasnaje@gmail.com",
			"queryParams": [],
			"preRequestScript": null,
			"pathVariables": {},
			"pathVariableData": [],
			"method": "GET",
			"data": [
				{
					"key": "email",
					"value": "marge@gmail.com",
					"description": "",
					"type": "text",
					"enabled": true
				}
			],
			"dataMode": "urlencoded",
			"tests": null,
			"currentHelper": "normal",
			"helperAttributes": {},
			"time": 1584421245873,
			"name": "http://127.0.0.1:4040/api/getuser",
			"description": "",
			"collectionId": "bc8e481a-4d4c-3063-62ff-9969fde82075",
			"responses": []
		},
		{
			"id": "f4c00144-b7ab-cd83-579c-d4aaef9abbe5",
			"headers": "Content-Type: application/x-www-form-urlencoded\n",
			"headerData": [
				{
					"key": "Content-Type",
					"value": "application/x-www-form-urlencoded",
					"description": "",
					"enabled": true
				}
			],
			"url": "http://127.0.0.1:4040/api/register",
			"queryParams": [],
			"preRequestScript": null,
			"pathVariables": {},
			"pathVariableData": [],
			"method": "POST",
			"data": [
				{
					"key": "username",
					"value": "Marie Jo",
					"description": "",
					"type": "text",
					"enabled": true
				},
				{
					"key": "email",
					"value": "Jermigo@gmail.com",
					"description": "",
					"type": "text",
					"enabled": true
				},
				{
					"key": "password",
					"value": "mypass1234",
					"description": "",
					"type": "text",
					"enabled": true
				},
				{
					"key": "confirmPassword",
					"value": "mypass1234",
					"description": "",
					"type": "text",
					"enabled": true
				}
			],
			"dataMode": "urlencoded",
			"version": 2,
			"tests": null,
			"currentHelper": "normal",
			"helperAttributes": {},
			"time": 1584415470487,
			"name": "http://127.0.0.1:4040/api/register",
			"description": "register user ",
			"collectionId": "bc8e481a-4d4c-3063-62ff-9969fde82075",
			"responses": []
		}
	]
}